<?xml version="1.0" encoding="utf-8"?><svg xmlns="http://www.w3.org/2000/svg" xmlns:xlink="http://www.w3.org/1999/xlink" width="260" height="70" preserveAspectRatio="xMidYMid" viewBox="0 0 260 70" style="z-index:1;margin-right:-2px;display:block;background-repeat-y:initial;background-repeat-x:initial;background-color:rgb(255, 255, 255);animation-play-state:paused" ><g transform="translate(130,35) scale(1,-1) translate(-130,-35)" style="transform:matrix(1, 0, 0, -1, 0, 70);animation-play-state:paused" ><linearGradient id="lg-0.22171885465914154" x1="0" x2="1" y1="0" y2="0" style="animation-play-state:paused" ><stop stop-color="#008aa2" offset="0" style="animation-play-state:paused" ></stop>

  
<stop stop-color="#009ab4" offset="1" style="animation-play-state:paused" ></stop></linearGradient>
<path d="M 0 0 L 0 36.9938 Q 65 65.0594 130 36.5199 T 260 40.3769 L 260 0 Z" fill="url(#lg-0.22171885465914154)" opacity="0.5" style="opacity:0.5;animation-play-state:paused" ></path>
<path d="M 0 0 L 0 57.9179 Q 65 46.6149 130 17.9869 T 260 28.4239 L 260 0 Z" fill="url(#lg-0.22171885465914154)" opacity="0.5" style="opacity:0.5;animation-play-state:paused" ></path>
<path d="M 0 0 L 0 34.7834 Q 65 69.4192 130 54.2305 T 260 22.3565 L 260 0 Z" fill="url(#lg-0.22171885465914154)" opacity="0.5" style="opacity:0.5;animation-play-state:paused" ></path></g></svg>